-- Merging decision tree log ---
manifest
ADDED from E:\Studio Workspace\Camscanner\scanner-master\working copy\CameraApplication\app\src\main\AndroidManifest.xml:2:1-31:12
INJECTED from E:\Studio Workspace\Camscanner\scanner-master\working copy\CameraApplication\app\src\main\AndroidManifest.xml:2:1-31:12
INJECTED from E:\Studio Workspace\Camscanner\scanner-master\working copy\CameraApplication\app\src\main\AndroidManifest.xml:2:1-31:12
INJECTED from E:\Studio Workspace\Camscanner\scanner-master\working copy\CameraApplication\app\src\main\AndroidManifest.xml:2:1-31:12
MERGED from [:scanlibrary] E:\Studio Workspace\Camscanner\scanner-master\working copy\CameraApplication\scanlibrary\build\intermediates\library_manifest\debug\AndroidManifest.xml:2:1-41:12
MERGED from [com.google.android.material:material:1.3.0-alpha02] C:\Users\Nauman Qaiser\.gradle\caches\transforms-2\files-2.1\98f7c8ebc2c66bf0524ae52d558ac2e7\material-1.3.0-alpha02\AndroidManifest.xml:17:1-24:12
MERGED from [:auto-detect] E:\Studio Workspace\Camscanner\scanner-master\working copy\CameraApplication\auto-detect\build\intermediates\library_manifest\debug\AndroidManifest.xml:2:1-42:12
MERGED from [androidx.constraintlayout:constraintlayout:2.0.0-beta7] C:\Users\Nauman Qaiser\.gradle\caches\transforms-2\files-2.1\732873b67ef0334785b0d33dad91a9e8\constraintlayout-2.0.0-beta7\AndroidManifest.xml:2:1-11:12
MERGED from [com.huangyz0918:androidwm-light:0.1.2] C:\Users\Nauman Qaiser\.gradle\caches\transforms-2\files-2.1\74c8c759e70bad475b662b98f97365b2\jetified-androidwm-light-0.1.2\AndroidManifest.xml:2:1-11:12
MERGED from [androidx.appcompat:appcompat:1.2.0] C:\Users\Nauman Qaiser\.gradle\caches\transforms-2\files-2.1\032e24418dc3433ce45e6fc5d71ee226\appcompat-1.2.0\AndroidManifest.xml:17:1-24:12
MERGED from [com.github.chrisbanes.photoview:library:1.2.4] C:\Users\Nauman Qaiser\.gradle\caches\transforms-2\files-2.1\8b9df4b5954c9de4c8e635550914d710\jetified-library-1.2.4\AndroidManifest.xml:2:1-11:12
MERGED from [androidx.legacy:legacy-support-v4:1.0.0] C:\Users\Nauman Qaiser\.gradle\caches\transforms-2\files-2.1\9360cf1367a704ccd74509b9c6640d83\legacy-support-v4-1.0.0\AndroidManifest.xml:17:1-22:12
MERGED from [androidx.viewpager2:viewpager2:1.0.0] C:\Users\Nauman Qaiser\.gradle\caches\transforms-2\files-2.1\0dcc16b5dc73a1cc0cf5eba175827f08\jetified-viewpager2-1.0.0\AndroidManifest.xml:17:1-24:12
MERGED from [androidx.recyclerview:recyclerview:1.1.0] C:\Users\Nauman Qaiser\.gradle\caches\transforms-2\files-2.1\97573fd8ee0071872c0f381c5efa805a\recyclerview-1.1.0\AndroidManifest.xml:17:1-24:12
MERGED from [androidx.fragment:fragment:1.1.0] C:\Users\Nauman Qaiser\.gradle\caches\transforms-2\files-2.1\7619667f73099691456e81e3fedf8086\fragment-1.1.0\AndroidManifest.xml:17:1-24:12
MERGED from [androidx.appcompat:appcompat-resources:1.2.0] C:\Users\Nauman Qaiser\.gradle\caches\transforms-2\files-2.1\657d50daa571d2c9c1957826e0448d03\jetified-appcompat-resources-1.2.0\AndroidManifest.xml:17:1-24:12
MERGED from [androidx.legacy:legacy-support-core-ui:1.0.0] C:\Users\Nauman Qaiser\.gradle\caches\transforms-2\files-2.1\8d8538b270dedbd719c054e5cb3c4560\legacy-support-core-ui-1.0.0\AndroidManifest.xml:17:1-22:12
MERGED from [androidx.drawerlayout:drawerlayout:1.0.0] C:\Users\Nauman Qaiser\.gradle\caches\transforms-2\files-2.1\f66fa33308b0619d349f33f29e1b9234\drawerlayout-1.0.0\AndroidManifest.xml:17:1-22:12
MERGED from [androidx.coordinatorlayout:coordinatorlayout:1.1.0] C:\Users\Nauman Qaiser\.gradle\caches\transforms-2\files-2.1\0f0ffc8e4dfb0b800297b8b0b7b2d9cb\coordinatorlayout-1.1.0\AndroidManifest.xml:17:1-24:12
MERGED from [androidx.dynamicanimation:dynamicanimation:1.0.0] C:\Users\Nauman Qaiser\.gradle\caches\transforms-2\files-2.1\bae736bd36ebc93e53fe9fd5dc911bc9\dynamicanimation-1.0.0\AndroidManifest.xml:17:1-22:12
MERGED from [androidx.transition:transition:1.2.0] C:\Users\Nauman Qaiser\.gradle\caches\transforms-2\files-2.1\1f1009e4654f8f575464f844c1c2854d\transition-1.2.0\AndroidManifest.xml:17:1-24:12
MERGED from [androidx.vectordrawable:vectordrawable-animated:1.1.0] C:\Users\Nauman Qaiser\.gradle\caches\transforms-2\files-2.1\721dcdb357351f758b5df456f00974d6\vectordrawable-animated-1.1.0\AndroidManifest.xml:17:1-24:12
MERGED from [androidx.vectordrawable:vectordrawable:1.1.0] C:\Users\Nauman Qaiser\.gradle\caches\transforms-2\files-2.1\5449d447cecb7a5b7105df425966ce92\vectordrawable-1.1.0\AndroidManifest.xml:17:1-24:12
MERGED from [androidx.media:media:1.0.0] C:\Users\Nauman Qaiser\.gradle\caches\transforms-2\files-2.1\21868e54ee8fa7c5ee3c87552712a96c\media-1.0.0\AndroidManifest.xml:17:1-22:12
MERGED from [androidx.legacy:legacy-support-core-utils:1.0.0] C:\Users\Nauman Qaiser\.gradle\caches\transforms-2\files-2.1\7d485c838bde573a9b774202fc501e14\legacy-support-core-utils-1.0.0\AndroidManifest.xml:17:1-22:12
MERGED from [androidx.viewpager:viewpager:1.0.0] C:\Users\Nauman Qaiser\.gradle\caches\transforms-2\files-2.1\1570490a9aefa8bf7c72c2091e5007e6\viewpager-1.0.0\AndroidManifest.xml:17:1-22:12
MERGED from [androidx.loader:loader:1.0.0] C:\Users\Nauman Qaiser\.gradle\caches\transforms-2\files-2.1\c38deefe61a4b29c2fedadb5cb828cb9\loader-1.0.0\AndroidManifest.xml:17:1-22:12
MERGED from [androidx.activity:activity:1.0.0] C:\Users\Nauman Qaiser\.gradle\caches\transforms-2\files-2.1\cb7465d23e93e74bedcba12369934f8a\jetified-activity-1.0.0\AndroidManifest.xml:17:1-24:12
MERGED from [androidx.slidingpanelayout:slidingpanelayout:1.0.0] C:\Users\Nauman Qaiser\.gradle\caches\transforms-2\files-2.1\0fcb8293f1ad8a72968cee415eb0b621\slidingpanelayout-1.0.0\AndroidManifest.xml:17:1-22:12
MERGED from [androidx.customview:customview:1.0.0] C:\Users\Nauman Qaiser\.gradle\caches\transforms-2\files-2.1\4bf5efb9c6ca1cc1042b4ed281aac9d8\customview-1.0.0\AndroidManifest.xml:17:1-22:12
MERGED from [androidx.swiperefreshlayout:swiperefreshlayout:1.0.0] C:\Users\Nauman Qaiser\.gradle\caches\transforms-2\files-2.1\47969dd378bd395d9c130e31d38327f3\swiperefreshlayout-1.0.0\AndroidManifest.xml:17:1-22:12
MERGED from [androidx.asynclayoutinflater:asynclayoutinflater:1.0.0] C:\Users\Nauman Qaiser\.gradle\caches\transforms-2\files-2.1\abef6da21d1c57f9122d146255360cc7\asynclayoutinflater-1.0.0\AndroidManifest.xml:17:1-22:12
MERGED from [androidx.core:core-ktx:1.0.1] C:\Users\Nauman Qaiser\.gradle\caches\transforms-2\files-2.1\fda00b6ad4c71d5e6880cdc87f156333\jetified-core-ktx-1.0.1\AndroidManifest.xml:2:1-7:12
MERGED from [androidx.core:core:1.3.0] C:\Users\Nauman Qaiser\.gradle\caches\transforms-2\files-2.1\8106c9afeb27cc0c50f85995740f877c\core-1.3.0\AndroidManifest.xml:17:1-26:12
MERGED from [androidx.cursoradapter:cursoradapter:1.0.0] C:\Users\Nauman Qaiser\.gradle\caches\transforms-2\files-2.1\b37b2aeed146cfc3b1274c4cf21d4028\cursoradapter-1.0.0\AndroidManifest.xml:17:1-22:12
MERGED from [androidx.cardview:cardview:1.0.0] C:\Users\Nauman Qaiser\.gradle\caches\transforms-2\files-2.1\c97b0db2e77adb45592bee740aa5d495\cardview-1.0.0\AndroidManifest.xml:17:1-22:12
MERGED from [androidx.versionedparcelable:versionedparcelable:1.1.0] C:\Users\Nauman Qaiser\.gradle\caches\transforms-2\files-2.1\b741faf0c0e978004788a3922a8a438d\versionedparcelable-1.1.0\AndroidManifest.xml:17:1-27:12
MERGED from [androidx.documentfile:documentfile:1.0.0] C:\Users\Nauman Qaiser\.gradle\caches\transforms-2\files-2.1\abca430f327a1ba4137054854d25dfd3\documentfile-1.0.0\AndroidManifest.xml:17:1-22:12
MERGED from [androidx.localbroadcastmanager:localbroadcastmanager:1.0.0] C:\Users\Nauman Qaiser\.gradle\caches\transforms-2\files-2.1\836e9858d101fce50deef7223d87d0d6\localbroadcastmanager-1.0.0\AndroidManifest.xml:17:1-22:12
MERGED from [androidx.print:print:1.0.0] C:\Users\Nauman Qaiser\.gradle\caches\transforms-2\files-2.1\6083e5aff4a41b4b352509ce72ef01fb\print-1.0.0\AndroidManifest.xml:17:1-22:12
MERGED from [androidx.interpolator:interpolator:1.0.0] C:\Users\Nauman Qaiser\.gradle\caches\transforms-2\files-2.1\32691ed1dd96a709bdd6754d66b7ebfd\interpolator-1.0.0\AndroidManifest.xml:17:1-22:12
MERGED from [androidx.lifecycle:lifecycle-runtime:2.1.0] C:\Users\Nauman Qaiser\.gradle\caches\transforms-2\files-2.1\8164904e8dbba255593df041e8bd30ea\lifecycle-runtime-2.1.0\AndroidManifest.xml:17:1-22:12
MERGED from [androidx.lifecycle:lifecycle-viewmodel:2.1.0] C:\Users\Nauman Qaiser\.gradle\caches\transforms-2\files-2.1\59c8a6e28f96474652a981d6333afcdf\lifecycle-viewmodel-2.1.0\AndroidManifest.xml:17:1-22:12
MERGED from [androidx.savedstate:savedstate:1.0.0] C:\Users\Nauman Qaiser\.gradle\caches\transforms-2\files-2.1\3a332f7b3ba12f0d97b1eff5486f8fcf\jetified-savedstate-1.0.0\AndroidManifest.xml:17:1-24:12
MERGED from [androidx.lifecycle:lifecycle-livedata:2.0.0] C:\Users\Nauman Qaiser\.gradle\caches\transforms-2\files-2.1\c20b3a9c01fac1c58487516ff423d6b0\lifecycle-livedata-2.0.0\AndroidManifest.xml:17:1-22:12
MERGED from [androidx.lifecycle:lifecycle-livedata-core:2.0.0] C:\Users\Nauman Qaiser\.gradle\caches\transforms-2\files-2.1\68a64a089b7f098f26bb791f76de8be0\lifecycle-livedata-core-2.0.0\AndroidManifest.xml:17:1-22:12
MERGED from [androidx.arch.core:core-runtime:2.0.0] C:\Users\Nauman Qaiser\.gradle\caches\transforms-2\files-2.1\24d5b49fe2b36ef44f901a0f8118cef3\core-runtime-2.0.0\AndroidManifest.xml:17:1-22:12
MERGED from [androidx.annotation:annotation-experimental:1.0.0] C:\Users\Nauman Qaiser\.gradle\caches\transforms-2\files-2.1\b3c1a67109d75b4d0ef1905bc4a4da6d\jetified-annotation-experimental-1.0.0\AndroidManifest.xml:17:1-24:12
MERGED from [com.jakewharton.timber:timber:4.7.1] C:\Users\Nauman Qaiser\.gradle\caches\transforms-2\files-2.1\59bc7880808e913c382684838b97c382\jetified-timber-4.7.1\AndroidManifest.xml:2:1-9:12
MERGED from [:openCVLibrary2.4.13.1] E:\Studio Workspace\Camscanner\scanner-master\working copy\CameraApplication\openCVLibrary2.4.13.1\build\intermediates\library_manifest\debug\AndroidManifest.xml:2:1-11:12
INJECTED from E:\Studio Workspace\Camscanner\scanner-master\working copy\CameraApplication\app\src\main\AndroidManifest.xml:2:1-31:12
INJECTED from E:\Studio Workspace\Camscanner\scanner-master\working copy\CameraApplication\app\src\main\AndroidManifest.xml:2:1-31:12
INJECTED from E:\Studio Workspace\Camscanner\scanner-master\working copy\CameraApplication\app\src\main\AndroidManifest.xml:2:1-31:12
	package
		ADDED from E:\Studio Workspace\Camscanner\scanner-master\working copy\CameraApplication\app\src\main\AndroidManifest.xml:4:5-53
		INJECTED from E:\Studio Workspace\Camscanner\scanner-master\working copy\CameraApplication\app\src\main\AndroidManifest.xml
		INJECTED from E:\Studio Workspace\Camscanner\scanner-master\working copy\CameraApplication\app\src\main\AndroidManifest.xml
	android:versionName
		INJECTED from E:\Studio Workspace\Camscanner\scanner-master\working copy\CameraApplication\app\src\main\AndroidManifest.xml
		ADDED from E:\Studio Workspace\Camscanner\scanner-master\working copy\CameraApplication\app\src\main\AndroidManifest.xml:2:1-31:12
		INJECTED from E:\Studio Workspace\Camscanner\scanner-master\working copy\CameraApplication\app\src\main\AndroidManifest.xml
	xmlns:tools
		ADDED from E:\Studio Workspace\Camscanner\scanner-master\working copy\CameraApplication\app\src\main\AndroidManifest.xml:3:5-51
	android:versionCode
		INJECTED from E:\Studio Workspace\Camscanner\scanner-master\working copy\CameraApplication\app\src\main\AndroidManifest.xml
		ADDED from E:\Studio Workspace\Camscanner\scanner-master\working copy\CameraApplication\app\src\main\AndroidManifest.xml:2:1-31:12
		INJECTED from E:\Studio Workspace\Camscanner\scanner-master\working copy\CameraApplication\app\src\main\AndroidManifest.xml
	xmlns:android
		ADDED from E:\Studio Workspace\Camscanner\scanner-master\working copy\CameraApplication\app\src\main\AndroidManifest.xml:2:11-69
uses-permission#android.permission.CAMERA
ADDED from E:\Studio Workspace\Camscanner\scanner-master\working copy\CameraApplication\app\src\main\AndroidManifest.xml:6:5-65
MERGED from [:scanlibrary] E:\Studio Workspace\Camscanner\scanner-master\working copy\CameraApplication\scanlibrary\build\intermediates\library_manifest\debug\AndroidManifest.xml:15:5-65
MERGED from [:scanlibrary] E:\Studio Workspace\Camscanner\scanner-master\working copy\CameraApplication\scanlibrary\build\intermediates\library_manifest\debug\AndroidManifest.xml:15:5-65
MERGED from [:auto-detect] E:\Studio Workspace\Camscanner\scanner-master\working copy\CameraApplication\auto-detect\build\intermediates\library_manifest\debug\AndroidManifest.xml:11:5-65
MERGED from [:auto-detect] E:\Studio Workspace\Camscanner\scanner-master\working copy\CameraApplication\auto-detect\build\intermediates\library_manifest\debug\AndroidManifest.xml:11:5-65
	android:name
		ADDED from E:\Studio Workspace\Camscanner\scanner-master\working copy\CameraApplication\app\src\main\AndroidManifest.xml:6:22-62
uses-feature#android.hardware.camera
ADDED from E:\Studio Workspace\Camscanner\scanner-master\working copy\CameraApplication\app\src\main\AndroidManifest.xml:7:5-85
MERGED from [:scanlibrary] E:\Studio Workspace\Camscanner\scanner-master\working copy\CameraApplication\scanlibrary\build\intermediates\library_manifest\debug\AndroidManifest.xml:11:5-13:35
MERGED from [:scanlibrary] E:\Studio Workspace\Camscanner\scanner-master\working copy\CameraApplication\scanlibrary\build\intermediates\library_manifest\debug\AndroidManifest.xml:11:5-13:35
	android:required
		ADDED from E:\Studio Workspace\Camscanner\scanner-master\working copy\CameraApplication\app\src\main\AndroidManifest.xml:7:58-82
	android:name
		ADDED from E:\Studio Workspace\Camscanner\scanner-master\working copy\CameraApplication\app\src\main\AndroidManifest.xml:7:19-57
uses-permission#android.permission.WRITE_EXTERNAL_STORAGE
ADDED from E:\Studio Workspace\Camscanner\scanner-master\working copy\CameraApplication\app\src\main\AndroidManifest.xml:8:5-81
MERGED from [:scanlibrary] E:\Studio Workspace\Camscanner\scanner-master\working copy\CameraApplication\scanlibrary\build\intermediates\library_manifest\debug\AndroidManifest.xml:17:5-81
MERGED from [:scanlibrary] E:\Studio Workspace\Camscanner\scanner-master\working copy\CameraApplication\scanlibrary\build\intermediates\library_manifest\debug\AndroidManifest.xml:17:5-81
MERGED from [:auto-detect] E:\Studio Workspace\Camscanner\scanner-master\working copy\CameraApplication\auto-detect\build\intermediates\library_manifest\debug\AndroidManifest.xml:13:5-81
MERGED from [:auto-detect] E:\Studio Workspace\Camscanner\scanner-master\working copy\CameraApplication\auto-detect\build\intermediates\library_manifest\debug\AndroidManifest.xml:13:5-81
	android:name
		ADDED from E:\Studio Workspace\Camscanner\scanner-master\working copy\CameraApplication\app\src\main\AndroidManifest.xml:8:22-78
uses-permission#android.permission.READ_EXTERNAL_STORAGE
ADDED from E:\Studio Workspace\Camscanner\scanner-master\working copy\CameraApplication\app\src\main\AndroidManifest.xml:9:5-80
MERGED from [:scanlibrary] E:\Studio Workspace\Camscanner\scanner-master\working copy\CameraApplication\scanlibrary\build\intermediates\library_manifest\debug\AndroidManifest.xml:16:5-80
MERGED from [:scanlibrary] E:\Studio Workspace\Camscanner\scanner-master\working copy\CameraApplication\scanlibrary\build\intermediates\library_manifest\debug\AndroidManifest.xml:16:5-80
MERGED from [:auto-detect] E:\Studio Workspace\Camscanner\scanner-master\working copy\CameraApplication\auto-detect\build\intermediates\library_manifest\debug\AndroidManifest.xml:12:5-80
MERGED from [:auto-detect] E:\Studio Workspace\Camscanner\scanner-master\working copy\CameraApplication\auto-detect\build\intermediates\library_manifest\debug\AndroidManifest.xml:12:5-80
	android:name
		ADDED from E:\Studio Workspace\Camscanner\scanner-master\working copy\CameraApplication\app\src\main\AndroidManifest.xml:9:22-77
uses-permission#android.permission.ACCESS_FINE_LOCATION
ADDED from E:\Studio Workspace\Camscanner\scanner-master\working copy\CameraApplication\app\src\main\AndroidManifest.xml:10:5-79
	android:name
		ADDED from E:\Studio Workspace\Camscanner\scanner-master\working copy\CameraApplication\app\src\main\AndroidManifest.xml:10:22-76
application
ADDED from E:\Studio Workspace\Camscanner\scanner-master\working copy\CameraApplication\app\src\main\AndroidManifest.xml:13:5-29:19
MERGED from [:scanlibrary] E:\Studio Workspace\Camscanner\scanner-master\working copy\CameraApplication\scanlibrary\build\intermediates\library_manifest\debug\AndroidManifest.xml:19:5-39:19
MERGED from [:scanlibrary] E:\Studio Workspace\Camscanner\scanner-master\working copy\CameraApplication\scanlibrary\build\intermediates\library_manifest\debug\AndroidManifest.xml:19:5-39:19
MERGED from [com.google.android.material:material:1.3.0-alpha02] C:\Users\Nauman Qaiser\.gradle\caches\transforms-2\files-2.1\98f7c8ebc2c66bf0524ae52d558ac2e7\material-1.3.0-alpha02\AndroidManifest.xml:22:5-20
MERGED from [com.google.android.material:material:1.3.0-alpha02] C:\Users\Nauman Qaiser\.gradle\caches\transforms-2\files-2.1\98f7c8ebc2c66bf0524ae52d558ac2e7\material-1.3.0-alpha02\AndroidManifest.xml:22:5-20
MERGED from [:auto-detect] E:\Studio Workspace\Camscanner\scanner-master\working copy\CameraApplication\auto-detect\build\intermediates\library_manifest\debug\AndroidManifest.xml:15:5-40:19
MERGED from [:auto-detect] E:\Studio Workspace\Camscanner\scanner-master\working copy\CameraApplication\auto-detect\build\intermediates\library_manifest\debug\AndroidManifest.xml:15:5-40:19
MERGED from [androidx.constraintlayout:constraintlayout:2.0.0-beta7] C:\Users\Nauman Qaiser\.gradle\caches\transforms-2\files-2.1\732873b67ef0334785b0d33dad91a9e8\constraintlayout-2.0.0-beta7\AndroidManifest.xml:9:5-20
MERGED from [androidx.constraintlayout:constraintlayout:2.0.0-beta7] C:\Users\Nauman Qaiser\.gradle\caches\transforms-2\files-2.1\732873b67ef0334785b0d33dad91a9e8\constraintlayout-2.0.0-beta7\AndroidManifest.xml:9:5-20
MERGED from [androidx.core:core:1.3.0] C:\Users\Nauman Qaiser\.gradle\caches\transforms-2\files-2.1\8106c9afeb27cc0c50f85995740f877c\core-1.3.0\AndroidManifest.xml:24:5-89
MERGED from [androidx.core:core:1.3.0] C:\Users\Nauman Qaiser\.gradle\caches\transforms-2\files-2.1\8106c9afeb27cc0c50f85995740f877c\core-1.3.0\AndroidManifest.xml:24:5-89
MERGED from [androidx.versionedparcelable:versionedparcelable:1.1.0] C:\Users\Nauman Qaiser\.gradle\caches\transforms-2\files-2.1\b741faf0c0e978004788a3922a8a438d\versionedparcelable-1.1.0\AndroidManifest.xml:24:5-25:19
MERGED from [androidx.versionedparcelable:versionedparcelable:1.1.0] C:\Users\Nauman Qaiser\.gradle\caches\transforms-2\files-2.1\b741faf0c0e978004788a3922a8a438d\versionedparcelable-1.1.0\AndroidManifest.xml:24:5-25:19
MERGED from [com.jakewharton.timber:timber:4.7.1] C:\Users\Nauman Qaiser\.gradle\caches\transforms-2\files-2.1\59bc7880808e913c382684838b97c382\jetified-timber-4.7.1\AndroidManifest.xml:7:5-20
MERGED from [com.jakewharton.timber:timber:4.7.1] C:\Users\Nauman Qaiser\.gradle\caches\transforms-2\files-2.1\59bc7880808e913c382684838b97c382\jetified-timber-4.7.1\AndroidManifest.xml:7:5-20
	android:appComponentFactory
		ADDED from [androidx.core:core:1.3.0] C:\Users\Nauman Qaiser\.gradle\caches\transforms-2\files-2.1\8106c9afeb27cc0c50f85995740f877c\core-1.3.0\AndroidManifest.xml:24:18-86
	android:supportsRtl
		ADDED from E:\Studio Workspace\Camscanner\scanner-master\working copy\CameraApplication\app\src\main\AndroidManifest.xml:17:9-35
	android:label
		ADDED from E:\Studio Workspace\Camscanner\scanner-master\working copy\CameraApplication\app\src\main\AndroidManifest.xml:16:9-41
	android:hardwareAccelerated
		ADDED from [:scanlibrary] E:\Studio Workspace\Camscanner\scanner-master\working copy\CameraApplication\scanlibrary\build\intermediates\library_manifest\debug\AndroidManifest.xml:21:9-43
	android:roundIcon
		ADDED from [:auto-detect] E:\Studio Workspace\Camscanner\scanner-master\working copy\CameraApplication\auto-detect\build\intermediates\library_manifest\debug\AndroidManifest.xml:19:9-54
	android:largeHeap
		ADDED from E:\Studio Workspace\Camscanner\scanner-master\working copy\CameraApplication\app\src\main\AndroidManifest.xml:18:9-33
	android:icon
		ADDED from E:\Studio Workspace\Camscanner\scanner-master\working copy\CameraApplication\app\src\main\AndroidManifest.xml:15:9-43
	android:allowBackup
		ADDED from E:\Studio Workspace\Camscanner\scanner-master\working copy\CameraApplication\app\src\main\AndroidManifest.xml:14:9-35
	android:theme
		ADDED from E:\Studio Workspace\Camscanner\scanner-master\working copy\CameraApplication\app\src\main\AndroidManifest.xml:19:9-44
		REJECTED from [:auto-detect] E:\Studio Workspace\Camscanner\scanner-master\working copy\CameraApplication\auto-detect\build\intermediates\library_manifest\debug\AndroidManifest.xml:21:9-40
	tools:replace
		ADDED from E:\Studio Workspace\Camscanner\scanner-master\working copy\CameraApplication\app\src\main\AndroidManifest.xml:20:9-38
activity#com.android.mycamera.cameraapplication.MainActivity
ADDED from E:\Studio Workspace\Camscanner\scanner-master\working copy\CameraApplication\app\src\main\AndroidManifest.xml:21:9-27:20
	android:name
		ADDED from E:\Studio Workspace\Camscanner\scanner-master\working copy\CameraApplication\app\src\main\AndroidManifest.xml:21:19-47
intent-filter#action:name:android.intent.action.MAIN+category:name:android.intent.category.LAUNCHER
ADDED from E:\Studio Workspace\Camscanner\scanner-master\working copy\CameraApplication\app\src\main\AndroidManifest.xml:22:13-26:29
action#android.intent.action.MAIN
ADDED from E:\Studio Workspace\Camscanner\scanner-master\working copy\CameraApplication\app\src\main\AndroidManifest.xml:23:17-69
	android:name
		ADDED from E:\Studio Workspace\Camscanner\scanner-master\working copy\CameraApplication\app\src\main\AndroidManifest.xml:23:25-66
category#android.intent.category.LAUNCHER
ADDED from E:\Studio Workspace\Camscanner\scanner-master\working copy\CameraApplication\app\src\main\AndroidManifest.xml:25:17-77
	android:name
		ADDED from E:\Studio Workspace\Camscanner\scanner-master\working copy\CameraApplication\app\src\main\AndroidManifest.xml:25:27-74
activity#com.android.mycamera.cameraapplication.ImageGridViewActivity
ADDED from E:\Studio Workspace\Camscanner\scanner-master\working copy\CameraApplication\app\src\main\AndroidManifest.xml:28:9-58
	android:name
		ADDED from E:\Studio Workspace\Camscanner\scanner-master\working copy\CameraApplication\app\src\main\AndroidManifest.xml:28:19-56
uses-sdk
INJECTED from E:\Studio Workspace\Camscanner\scanner-master\working copy\CameraApplication\app\src\main\AndroidManifest.xml reason: use-sdk injection requested
INJECTED from E:\Studio Workspace\Camscanner\scanner-master\working copy\CameraApplication\app\src\main\AndroidManifest.xml
INJECTED from E:\Studio Workspace\Camscanner\scanner-master\working copy\CameraApplication\app\src\main\AndroidManifest.xml
MERGED from [:scanlibrary] E:\Studio Workspace\Camscanner\scanner-master\working copy\CameraApplication\scanlibrary\build\intermediates\library_manifest\debug\AndroidManifest.xml:7:5-9:41
MERGED from [:scanlibrary] E:\Studio Workspace\Camscanner\scanner-master\working copy\CameraApplication\scanlibrary\build\intermediates\library_manifest\debug\AndroidManifest.xml:7:5-9:41
MERGED from [com.google.android.material:material:1.3.0-alpha02] C:\Users\Nauman Qaiser\.gradle\caches\transforms-2\files-2.1\98f7c8ebc2c66bf0524ae52d558ac2e7\material-1.3.0-alpha02\AndroidManifest.xml:20:5-44
MERGED from [com.google.android.material:material:1.3.0-alpha02] C:\Users\Nauman Qaiser\.gradle\caches\transforms-2\files-2.1\98f7c8ebc2c66bf0524ae52d558ac2e7\material-1.3.0-alpha02\AndroidManifest.xml:20:5-44
MERGED from [:auto-detect] E:\Studio Workspace\Camscanner\scanner-master\working copy\CameraApplication\auto-detect\build\intermediates\library_manifest\debug\AndroidManifest.xml:7:5-9:41
MERGED from [:auto-detect] E:\Studio Workspace\Camscanner\scanner-master\working copy\CameraApplication\auto-detect\build\intermediates\library_manifest\debug\AndroidManifest.xml:7:5-9:41
MERGED from [androidx.constraintlayout:constraintlayout:2.0.0-beta7] C:\Users\Nauman Qaiser\.gradle\caches\transforms-2\files-2.1\732873b67ef0334785b0d33dad91a9e8\constraintlayout-2.0.0-beta7\AndroidManifest.xml:5:5-7:41
MERGED from [androidx.constraintlayout:constraintlayout:2.0.0-beta7] C:\Users\Nauman Qaiser\.gradle\caches\transforms-2\files-2.1\732873b67ef0334785b0d33dad91a9e8\constraintlayout-2.0.0-beta7\AndroidManifest.xml:5:5-7:41
MERGED from [com.huangyz0918:androidwm-light:0.1.2] C:\Users\Nauman Qaiser\.gradle\caches\transforms-2\files-2.1\74c8c759e70bad475b662b98f97365b2\jetified-androidwm-light-0.1.2\AndroidManifest.xml:7:5-9:41
MERGED from [com.huangyz0918:androidwm-light:0.1.2] C:\Users\Nauman Qaiser\.gradle\caches\transforms-2\files-2.1\74c8c759e70bad475b662b98f97365b2\jetified-androidwm-light-0.1.2\AndroidManifest.xml:7:5-9:41
MERGED from [androidx.appcompat:appcompat:1.2.0] C:\Users\Nauman Qaiser\.gradle\caches\transforms-2\files-2.1\032e24418dc3433ce45e6fc5d71ee226\appcompat-1.2.0\AndroidManifest.xml:20:5-22:41
MERGED from [androidx.appcompat:appcompat:1.2.0] C:\Users\Nauman Qaiser\.gradle\caches\transforms-2\files-2.1\032e24418dc3433ce45e6fc5d71ee226\appcompat-1.2.0\AndroidManifest.xml:20:5-22:41
MERGED from [com.github.chrisbanes.photoview:library:1.2.4] C:\Users\Nauman Qaiser\.gradle\caches\transforms-2\files-2.1\8b9df4b5954c9de4c8e635550914d710\jetified-library-1.2.4\AndroidManifest.xml:7:5-9:41
MERGED from [com.github.chrisbanes.photoview:library:1.2.4] C:\Users\Nauman Qaiser\.gradle\caches\transforms-2\files-2.1\8b9df4b5954c9de4c8e635550914d710\jetified-library-1.2.4\AndroidManifest.xml:7:5-9:41
MERGED from [androidx.legacy:legacy-support-v4:1.0.0] C:\Users\Nauman Qaiser\.gradle\caches\transforms-2\files-2.1\9360cf1367a704ccd74509b9c6640d83\legacy-support-v4-1.0.0\AndroidManifest.xml:20:5-44
MERGED from [androidx.legacy:legacy-support-v4:1.0.0] C:\Users\Nauman Qaiser\.gradle\caches\transforms-2\files-2.1\9360cf1367a704ccd74509b9c6640d83\legacy-support-v4-1.0.0\AndroidManifest.xml:20:5-44
MERGED from [androidx.viewpager2:viewpager2:1.0.0] C:\Users\Nauman Qaiser\.gradle\caches\transforms-2\files-2.1\0dcc16b5dc73a1cc0cf5eba175827f08\jetified-viewpager2-1.0.0\AndroidManifest.xml:20:5-22:41
MERGED from [androidx.viewpager2:viewpager2:1.0.0] C:\Users\Nauman Qaiser\.gradle\caches\transforms-2\files-2.1\0dcc16b5dc73a1cc0cf5eba175827f08\jetified-viewpager2-1.0.0\AndroidManifest.xml:20:5-22:41
MERGED from [androidx.recyclerview:recyclerview:1.1.0] C:\Users\Nauman Qaiser\.gradle\caches\transforms-2\files-2.1\97573fd8ee0071872c0f381c5efa805a\recyclerview-1.1.0\AndroidManifest.xml:20:5-22:41
MERGED from [androidx.recyclerview:recyclerview:1.1.0] C:\Users\Nauman Qaiser\.gradle\caches\transforms-2\files-2.1\97573fd8ee0071872c0f381c5efa805a\recyclerview-1.1.0\AndroidManifest.xml:20:5-22:41
MERGED from [androidx.fragment:fragment:1.1.0] C:\Users\Nauman Qaiser\.gradle\caches\transforms-2\files-2.1\7619667f73099691456e81e3fedf8086\fragment-1.1.0\AndroidManifest.xml:20:5-22:41
MERGED from [androidx.fragment:fragment:1.1.0] C:\Users\Nauman Qaiser\.gradle\caches\transforms-2\files-2.1\7619667f73099691456e81e3fedf8086\fragment-1.1.0\AndroidManifest.xml:20:5-22:41
MERGED from [androidx.appcompat:appcompat-resources:1.2.0] C:\Users\Nauman Qaiser\.gradle\caches\transforms-2\files-2.1\657d50daa571d2c9c1957826e0448d03\jetified-appcompat-resources-1.2.0\AndroidManifest.xml:20:5-22:41
MERGED from [androidx.appcompat:appcompat-resources:1.2.0] C:\Users\Nauman Qaiser\.gradle\caches\transforms-2\files-2.1\657d50daa571d2c9c1957826e0448d03\jetified-appcompat-resources-1.2.0\AndroidManifest.xml:20:5-22:41
MERGED from [androidx.legacy:legacy-support-core-ui:1.0.0] C:\Users\Nauman Qaiser\.gradle\caches\transforms-2\files-2.1\8d8538b270dedbd719c054e5cb3c4560\legacy-support-core-ui-1.0.0\AndroidManifest.xml:20:5-44
MERGED from [androidx.legacy:legacy-support-core-ui:1.0.0] C:\Users\Nauman Qaiser\.gradle\caches\transforms-2\files-2.1\8d8538b270dedbd719c054e5cb3c4560\legacy-support-core-ui-1.0.0\AndroidManifest.xml:20:5-44
MERGED from [androidx.drawerlayout:drawerlayout:1.0.0] C:\Users\Nauman Qaiser\.gradle\caches\transforms-2\files-2.1\f66fa33308b0619d349f33f29e1b9234\drawerlayout-1.0.0\AndroidManifest.xml:20:5-44
MERGED from [androidx.drawerlayout:drawerlayout:1.0.0] C:\Users\Nauman Qaiser\.gradle\caches\transforms-2\files-2.1\f66fa33308b0619d349f33f29e1b9234\drawerlayout-1.0.0\AndroidManifest.xml:20:5-44
MERGED from [androidx.coordinatorlayout:coordinatorlayout:1.1.0] C:\Users\Nauman Qaiser\.gradle\caches\transforms-2\files-2.1\0f0ffc8e4dfb0b800297b8b0b7b2d9cb\coordinatorlayout-1.1.0\AndroidManifest.xml:20:5-22:41
MERGED from [androidx.coordinatorlayout:coordinatorlayout:1.1.0] C:\Users\Nauman Qaiser\.gradle\caches\transforms-2\files-2.1\0f0ffc8e4dfb0b800297b8b0b7b2d9cb\coordinatorlayout-1.1.0\AndroidManifest.xml:20:5-22:41
MERGED from [androidx.dynamicanimation:dynamicanimation:1.0.0] C:\Users\Nauman Qaiser\.gradle\caches\transforms-2\files-2.1\bae736bd36ebc93e53fe9fd5dc911bc9\dynamicanimation-1.0.0\AndroidManifest.xml:20:5-44
MERGED from [androidx.dynamicanimation:dynamicanimation:1.0.0] C:\Users\Nauman Qaiser\.gradle\caches\transforms-2\files-2.1\bae736bd36ebc93e53fe9fd5dc911bc9\dynamicanimation-1.0.0\AndroidManifest.xml:20:5-44
MERGED from [androidx.transition:transition:1.2.0] C:\Users\Nauman Qaiser\.gradle\caches\transforms-2\files-2.1\1f1009e4654f8f575464f844c1c2854d\transition-1.2.0\AndroidManifest.xml:20:5-22:41
MERGED from [androidx.transition:transition:1.2.0] C:\Users\Nauman Qaiser\.gradle\caches\transforms-2\files-2.1\1f1009e4654f8f575464f844c1c2854d\transition-1.2.0\AndroidManifest.xml:20:5-22:41
MERGED from [androidx.vectordrawable:vectordrawable-animated:1.1.0] C:\Users\Nauman Qaiser\.gradle\caches\transforms-2\files-2.1\721dcdb357351f758b5df456f00974d6\vectordrawable-animated-1.1.0\AndroidManifest.xml:20:5-22:41
MERGED from [androidx.vectordrawable:vectordrawable-animated:1.1.0] C:\Users\Nauman Qaiser\.gradle\caches\transforms-2\files-2.1\721dcdb357351f758b5df456f00974d6\vectordrawable-animated-1.1.0\AndroidManifest.xml:20:5-22:41
MERGED from [androidx.vectordrawable:vectordrawable:1.1.0] C:\Users\Nauman Qaiser\.gradle\caches\transforms-2\files-2.1\5449d447cecb7a5b7105df425966ce92\vectordrawable-1.1.0\AndroidManifest.xml:20:5-22:41
MERGED from [androidx.vectordrawable:vectordrawable:1.1.0] C:\Users\Nauman Qaiser\.gradle\caches\transforms-2\files-2.1\5449d447cecb7a5b7105df425966ce92\vectordrawable-1.1.0\AndroidManifest.xml:20:5-22:41
MERGED from [androidx.media:media:1.0.0] C:\Users\Nauman Qaiser\.gradle\caches\transforms-2\files-2.1\21868e54ee8fa7c5ee3c87552712a96c\media-1.0.0\AndroidManifest.xml:20:5-44
MERGED from [androidx.media:media:1.0.0] C:\Users\Nauman Qaiser\.gradle\caches\transforms-2\files-2.1\21868e54ee8fa7c5ee3c87552712a96c\media-1.0.0\AndroidManifest.xml:20:5-44
MERGED from [androidx.legacy:legacy-support-core-utils:1.0.0] C:\Users\Nauman Qaiser\.gradle\caches\transforms-2\files-2.1\7d485c838bde573a9b774202fc501e14\legacy-support-core-utils-1.0.0\AndroidManifest.xml:20:5-44
MERGED from [androidx.legacy:legacy-support-core-utils:1.0.0] C:\Users\Nauman Qaiser\.gradle\caches\transforms-2\files-2.1\7d485c838bde573a9b774202fc501e14\legacy-support-core-utils-1.0.0\AndroidManifest.xml:20:5-44
MERGED from [androidx.viewpager:viewpager:1.0.0] C:\Users\Nauman Qaiser\.gradle\caches\transforms-2\files-2.1\1570490a9aefa8bf7c72c2091e5007e6\viewpager-1.0.0\AndroidManifest.xml:20:5-44
MERGED from [androidx.viewpager:viewpager:1.0.0] C:\Users\Nauman Qaiser\.gradle\caches\transforms-2\files-2.1\1570490a9aefa8bf7c72c2091e5007e6\viewpager-1.0.0\AndroidManifest.xml:20:5-44
MERGED from [androidx.loader:loader:1.0.0] C:\Users\Nauman Qaiser\.gradle\caches\transforms-2\files-2.1\c38deefe61a4b29c2fedadb5cb828cb9\loader-1.0.0\AndroidManifest.xml:20:5-44
MERGED from [androidx.loader:loader:1.0.0] C:\Users\Nauman Qaiser\.gradle\caches\transforms-2\files-2.1\c38deefe61a4b29c2fedadb5cb828cb9\loader-1.0.0\AndroidManifest.xml:20:5-44
MERGED from [androidx.activity:activity:1.0.0] C:\Users\Nauman Qaiser\.gradle\caches\transforms-2\files-2.1\cb7465d23e93e74bedcba12369934f8a\jetified-activity-1.0.0\AndroidManifest.xml:20:5-22:41
MERGED from [androidx.activity:activity:1.0.0] C:\Users\Nauman Qaiser\.gradle\caches\transforms-2\files-2.1\cb7465d23e93e74bedcba12369934f8a\jetified-activity-1.0.0\AndroidManifest.xml:20:5-22:41
MERGED from [androidx.slidingpanelayout:slidingpanelayout:1.0.0] C:\Users\Nauman Qaiser\.gradle\caches\transforms-2\files-2.1\0fcb8293f1ad8a72968cee415eb0b621\slidingpanelayout-1.0.0\AndroidManifest.xml:20:5-44
MERGED from [androidx.slidingpanelayout:slidingpanelayout:1.0.0] C:\Users\Nauman Qaiser\.gradle\caches\transforms-2\files-2.1\0fcb8293f1ad8a72968cee415eb0b621\slidingpanelayout-1.0.0\AndroidManifest.xml:20:5-44
MERGED from [androidx.customview:customview:1.0.0] C:\Users\Nauman Qaiser\.gradle\caches\transforms-2\files-2.1\4bf5efb9c6ca1cc1042b4ed281aac9d8\customview-1.0.0\AndroidManifest.xml:20:5-44
MERGED from [androidx.customview:customview:1.0.0] C:\Users\Nauman Qaiser\.gradle\caches\transforms-2\files-2.1\4bf5efb9c6ca1cc1042b4ed281aac9d8\customview-1.0.0\AndroidManifest.xml:20:5-44
MERGED from [androidx.swiperefreshlayout:swiperefreshlayout:1.0.0] C:\Users\Nauman Qaiser\.gradle\caches\transforms-2\files-2.1\47969dd378bd395d9c130e31d38327f3\swiperefreshlayout-1.0.0\AndroidManifest.xml:20:5-44
MERGED from [androidx.swiperefreshlayout:swiperefreshlayout:1.0.0] C:\Users\Nauman Qaiser\.gradle\caches\transforms-2\files-2.1\47969dd378bd395d9c130e31d38327f3\swiperefreshlayout-1.0.0\AndroidManifest.xml:20:5-44
MERGED from [androidx.asynclayoutinflater:asynclayoutinflater:1.0.0] C:\Users\Nauman Qaiser\.gradle\caches\transforms-2\files-2.1\abef6da21d1c57f9122d146255360cc7\asynclayoutinflater-1.0.0\AndroidManifest.xml:20:5-44
MERGED from [androidx.asynclayoutinflater:asynclayoutinflater:1.0.0] C:\Users\Nauman Qaiser\.gradle\caches\transforms-2\files-2.1\abef6da21d1c57f9122d146255360cc7\asynclayoutinflater-1.0.0\AndroidManifest.xml:20:5-44
MERGED from [androidx.core:core-ktx:1.0.1] C:\Users\Nauman Qaiser\.gradle\caches\transforms-2\files-2.1\fda00b6ad4c71d5e6880cdc87f156333\jetified-core-ktx-1.0.1\AndroidManifest.xml:5:5-44
MERGED from [androidx.core:core-ktx:1.0.1] C:\Users\Nauman Qaiser\.gradle\caches\transforms-2\files-2.1\fda00b6ad4c71d5e6880cdc87f156333\jetified-core-ktx-1.0.1\AndroidManifest.xml:5:5-44
MERGED from [androidx.core:core:1.3.0] C:\Users\Nauman Qaiser\.gradle\caches\transforms-2\files-2.1\8106c9afeb27cc0c50f85995740f877c\core-1.3.0\AndroidManifest.xml:20:5-22:41
MERGED from [androidx.core:core:1.3.0] C:\Users\Nauman Qaiser\.gradle\caches\transforms-2\files-2.1\8106c9afeb27cc0c50f85995740f877c\core-1.3.0\AndroidManifest.xml:20:5-22:41
MERGED from [androidx.cursoradapter:cursoradapter:1.0.0] C:\Users\Nauman Qaiser\.gradle\caches\transforms-2\files-2.1\b37b2aeed146cfc3b1274c4cf21d4028\cursoradapter-1.0.0\AndroidManifest.xml:20:5-44
MERGED from [androidx.cursoradapter:cursoradapter:1.0.0] C:\Users\Nauman Qaiser\.gradle\caches\transforms-2\files-2.1\b37b2aeed146cfc3b1274c4cf21d4028\cursoradapter-1.0.0\AndroidManifest.xml:20:5-44
MERGED from [androidx.cardview:cardview:1.0.0] C:\Users\Nauman Qaiser\.gradle\caches\transforms-2\files-2.1\c97b0db2e77adb45592bee740aa5d495\cardview-1.0.0\AndroidManifest.xml:20:5-44
MERGED from [androidx.cardview:cardview:1.0.0] C:\Users\Nauman Qaiser\.gradle\caches\transforms-2\files-2.1\c97b0db2e77adb45592bee740aa5d495\cardview-1.0.0\AndroidManifest.xml:20:5-44
MERGED from [androidx.versionedparcelable:versionedparcelable:1.1.0] C:\Users\Nauman Qaiser\.gradle\caches\transforms-2\files-2.1\b741faf0c0e978004788a3922a8a438d\versionedparcelable-1.1.0\AndroidManifest.xml:20:5-22:41
MERGED from [androidx.versionedparcelable:versionedparcelable:1.1.0] C:\Users\Nauman Qaiser\.gradle\caches\transforms-2\files-2.1\b741faf0c0e978004788a3922a8a438d\versionedparcelable-1.1.0\AndroidManifest.xml:20:5-22:41
MERGED from [androidx.documentfile:documentfile:1.0.0] C:\Users\Nauman Qaiser\.gradle\caches\transforms-2\files-2.1\abca430f327a1ba4137054854d25dfd3\documentfile-1.0.0\AndroidManifest.xml:20:5-44
MERGED from [androidx.documentfile:documentfile:1.0.0] C:\Users\Nauman Qaiser\.gradle\caches\transforms-2\files-2.1\abca430f327a1ba4137054854d25dfd3\documentfile-1.0.0\AndroidManifest.xml:20:5-44
MERGED from [androidx.localbroadcastmanager:localbroadcastmanager:1.0.0] C:\Users\Nauman Qaiser\.gradle\caches\transforms-2\files-2.1\836e9858d101fce50deef7223d87d0d6\localbroadcastmanager-1.0.0\AndroidManifest.xml:20:5-44
MERGED from [androidx.localbroadcastmanager:localbroadcastmanager:1.0.0] C:\Users\Nauman Qaiser\.gradle\caches\transforms-2\files-2.1\836e9858d101fce50deef7223d87d0d6\localbroadcastmanager-1.0.0\AndroidManifest.xml:20:5-44
MERGED from [androidx.print:print:1.0.0] C:\Users\Nauman Qaiser\.gradle\caches\transforms-2\files-2.1\6083e5aff4a41b4b352509ce72ef01fb\print-1.0.0\AndroidManifest.xml:20:5-44
MERGED from [androidx.print:print:1.0.0] C:\Users\Nauman Qaiser\.gradle\caches\transforms-2\files-2.1\6083e5aff4a41b4b352509ce72ef01fb\print-1.0.0\AndroidManifest.xml:20:5-44
MERGED from [androidx.interpolator:interpolator:1.0.0] C:\Users\Nauman Qaiser\.gradle\caches\transforms-2\files-2.1\32691ed1dd96a709bdd6754d66b7ebfd\interpolator-1.0.0\AndroidManifest.xml:20:5-44
MERGED from [androidx.interpolator:interpolator:1.0.0] C:\Users\Nauman Qaiser\.gradle\caches\transforms-2\files-2.1\32691ed1dd96a709bdd6754d66b7ebfd\interpolator-1.0.0\AndroidManifest.xml:20:5-44
MERGED from [androidx.lifecycle:lifecycle-runtime:2.1.0] C:\Users\Nauman Qaiser\.gradle\caches\transforms-2\files-2.1\8164904e8dbba255593df041e8bd30ea\lifecycle-runtime-2.1.0\AndroidManifest.xml:20:5-44
MERGED from [androidx.lifecycle:lifecycle-runtime:2.1.0] C:\Users\Nauman Qaiser\.gradle\caches\transforms-2\files-2.1\8164904e8dbba255593df041e8bd30ea\lifecycle-runtime-2.1.0\AndroidManifest.xml:20:5-44
MERGED from [androidx.lifecycle:lifecycle-viewmodel:2.1.0] C:\Users\Nauman Qaiser\.gradle\caches\transforms-2\files-2.1\59c8a6e28f96474652a981d6333afcdf\lifecycle-viewmodel-2.1.0\AndroidManifest.xml:20:5-44
MERGED from [androidx.lifecycle:lifecycle-viewmodel:2.1.0] C:\Users\Nauman Qaiser\.gradle\caches\transforms-2\files-2.1\59c8a6e28f96474652a981d6333afcdf\lifecycle-viewmodel-2.1.0\AndroidManifest.xml:20:5-44
MERGED from [androidx.savedstate:savedstate:1.0.0] C:\Users\Nauman Qaiser\.gradle\caches\transforms-2\files-2.1\3a332f7b3ba12f0d97b1eff5486f8fcf\jetified-savedstate-1.0.0\AndroidManifest.xml:20:5-22:41
MERGED from [androidx.savedstate:savedstate:1.0.0] C:\Users\Nauman Qaiser\.gradle\caches\transforms-2\files-2.1\3a332f7b3ba12f0d97b1eff5486f8fcf\jetified-savedstate-1.0.0\AndroidManifest.xml:20:5-22:41
MERGED from [androidx.lifecycle:lifecycle-livedata:2.0.0] C:\Users\Nauman Qaiser\.gradle\caches\transforms-2\files-2.1\c20b3a9c01fac1c58487516ff423d6b0\lifecycle-livedata-2.0.0\AndroidManifest.xml:20:5-44
MERGED from [androidx.lifecycle:lifecycle-livedata:2.0.0] C:\Users\Nauman Qaiser\.gradle\caches\transforms-2\files-2.1\c20b3a9c01fac1c58487516ff423d6b0\lifecycle-livedata-2.0.0\AndroidManifest.xml:20:5-44
MERGED from [androidx.lifecycle:lifecycle-livedata-core:2.0.0] C:\Users\Nauman Qaiser\.gradle\caches\transforms-2\files-2.1\68a64a089b7f098f26bb791f76de8be0\lifecycle-livedata-core-2.0.0\AndroidManifest.xml:20:5-44
MERGED from [androidx.lifecycle:lifecycle-livedata-core:2.0.0] C:\Users\Nauman Qaiser\.gradle\caches\transforms-2\files-2.1\68a64a089b7f098f26bb791f76de8be0\lifecycle-livedata-core-2.0.0\AndroidManifest.xml:20:5-44
MERGED from [androidx.arch.core:core-runtime:2.0.0] C:\Users\Nauman Qaiser\.gradle\caches\transforms-2\files-2.1\24d5b49fe2b36ef44f901a0f8118cef3\core-runtime-2.0.0\AndroidManifest.xml:20:5-44
MERGED from [androidx.arch.core:core-runtime:2.0.0] C:\Users\Nauman Qaiser\.gradle\caches\transforms-2\files-2.1\24d5b49fe2b36ef44f901a0f8118cef3\core-runtime-2.0.0\AndroidManifest.xml:20:5-44
MERGED from [androidx.annotation:annotation-experimental:1.0.0] C:\Users\Nauman Qaiser\.gradle\caches\transforms-2\files-2.1\b3c1a67109d75b4d0ef1905bc4a4da6d\jetified-annotation-experimental-1.0.0\AndroidManifest.xml:20:5-22:41
MERGED from [androidx.annotation:annotation-experimental:1.0.0] C:\Users\Nauman Qaiser\.gradle\caches\transforms-2\files-2.1\b3c1a67109d75b4d0ef1905bc4a4da6d\jetified-annotation-experimental-1.0.0\AndroidManifest.xml:20:5-22:41
MERGED from [com.jakewharton.timber:timber:4.7.1] C:\Users\Nauman Qaiser\.gradle\caches\transforms-2\files-2.1\59bc7880808e913c382684838b97c382\jetified-timber-4.7.1\AndroidManifest.xml:5:5-43
MERGED from [com.jakewharton.timber:timber:4.7.1] C:\Users\Nauman Qaiser\.gradle\caches\transforms-2\files-2.1\59bc7880808e913c382684838b97c382\jetified-timber-4.7.1\AndroidManifest.xml:5:5-43
MERGED from [:openCVLibrary2.4.13.1] E:\Studio Workspace\Camscanner\scanner-master\working copy\CameraApplication\openCVLibrary2.4.13.1\build\intermediates\library_manifest\debug\AndroidManifest.xml:7:5-9:41
MERGED from [:openCVLibrary2.4.13.1] E:\Studio Workspace\Camscanner\scanner-master\working copy\CameraApplication\openCVLibrary2.4.13.1\build\intermediates\library_manifest\debug\AndroidManifest.xml:7:5-9:41
INJECTED from E:\Studio Workspace\Camscanner\scanner-master\working copy\CameraApplication\app\src\main\AndroidManifest.xml
INJECTED from E:\Studio Workspace\Camscanner\scanner-master\working copy\CameraApplication\app\src\main\AndroidManifest.xml
	android:targetSdkVersion
		INJECTED from E:\Studio Workspace\Camscanner\scanner-master\working copy\CameraApplication\app\src\main\AndroidManifest.xml
		ADDED from E:\Studio Workspace\Camscanner\scanner-master\working copy\CameraApplication\app\src\main\AndroidManifest.xml
		INJECTED from E:\Studio Workspace\Camscanner\scanner-master\working copy\CameraApplication\app\src\main\AndroidManifest.xml
	android:minSdkVersion
		INJECTED from E:\Studio Workspace\Camscanner\scanner-master\working copy\CameraApplication\app\src\main\AndroidManifest.xml
		ADDED from E:\Studio Workspace\Camscanner\scanner-master\working copy\CameraApplication\app\src\main\AndroidManifest.xml
		INJECTED from E:\Studio Workspace\Camscanner\scanner-master\working copy\CameraApplication\app\src\main\AndroidManifest.xml
activity#com.scanlibrary.ScanActivity
ADDED from [:scanlibrary] E:\Studio Workspace\Camscanner\scanner-master\working copy\CameraApplication\scanlibrary\build\intermediates\library_manifest\debug\AndroidManifest.xml:24:9-28:20
	android:label
		ADDED from [:scanlibrary] E:\Studio Workspace\Camscanner\scanner-master\working copy\CameraApplication\scanlibrary\build\intermediates\library_manifest\debug\AndroidManifest.xml:27:13-45
	android:configChanges
		ADDED from [:scanlibrary] E:\Studio Workspace\Camscanner\scanner-master\working copy\CameraApplication\scanlibrary\build\intermediates\library_manifest\debug\AndroidManifest.xml:26:13-59
	android:name
		ADDED from [:scanlibrary] E:\Studio Workspace\Camscanner\scanner-master\working copy\CameraApplication\scanlibrary\build\intermediates\library_manifest\debug\AndroidManifest.xml:25:13-56
provider#androidx.core.content.FileProvider
ADDED from [:scanlibrary] E:\Studio Workspace\Camscanner\scanner-master\working copy\CameraApplication\scanlibrary\build\intermediates\library_manifest\debug\AndroidManifest.xml:30:9-38:20
	android:grantUriPermissions
		ADDED from [:scanlibrary] E:\Studio Workspace\Camscanner\scanner-master\working copy\CameraApplication\scanlibrary\build\intermediates\library_manifest\debug\AndroidManifest.xml:34:13-47
	android:authorities
		ADDED from [:scanlibrary] E:\Studio Workspace\Camscanner\scanner-master\working copy\CameraApplication\scanlibrary\build\intermediates\library_manifest\debug\AndroidManifest.xml:32:13-70
	android:exported
		ADDED from [:scanlibrary] E:\Studio Workspace\Camscanner\scanner-master\working copy\CameraApplication\scanlibrary\build\intermediates\library_manifest\debug\AndroidManifest.xml:33:13-37
	android:name
		ADDED from [:scanlibrary] E:\Studio Workspace\Camscanner\scanner-master\working copy\CameraApplication\scanlibrary\build\intermediates\library_manifest\debug\AndroidManifest.xml:31:13-62
meta-data#android.support.FILE_PROVIDER_PATHS
ADDED from [:scanlibrary] E:\Studio Workspace\Camscanner\scanner-master\working copy\CameraApplication\scanlibrary\build\intermediates\library_manifest\debug\AndroidManifest.xml:35:13-37:58
	android:resource
		ADDED from [:scanlibrary] E:\Studio Workspace\Camscanner\scanner-master\working copy\CameraApplication\scanlibrary\build\intermediates\library_manifest\debug\AndroidManifest.xml:37:17-55
	android:name
		ADDED from [:scanlibrary] E:\Studio Workspace\Camscanner\scanner-master\working copy\CameraApplication\scanlibrary\build\intermediates\library_manifest\debug\AndroidManifest.xml:36:17-67
activity#ppapps.cropreceiptdemo.MainActivity
ADDED from [:auto-detect] E:\Studio Workspace\Camscanner\scanner-master\working copy\CameraApplication\auto-detect\build\intermediates\library_manifest\debug\AndroidManifest.xml:22:9-31:20
	android:screenOrientation
		ADDED from [:auto-detect] E:\Studio Workspace\Camscanner\scanner-master\working copy\CameraApplication\auto-detect\build\intermediates\library_manifest\debug\AndroidManifest.xml:25:13-49
	android:label
		ADDED from [:auto-detect] E:\Studio Workspace\Camscanner\scanner-master\working copy\CameraApplication\auto-detect\build\intermediates\library_manifest\debug\AndroidManifest.xml:24:13-52
	android:name
		ADDED from [:auto-detect] E:\Studio Workspace\Camscanner\scanner-master\working copy\CameraApplication\auto-detect\build\intermediates\library_manifest\debug\AndroidManifest.xml:23:13-63
activity#ppapps.cropreceiptdemo.reviewreceipt.ReviewReceiptActivity
ADDED from [:auto-detect] E:\Studio Workspace\Camscanner\scanner-master\working copy\CameraApplication\auto-detect\build\intermediates\library_manifest\debug\AndroidManifest.xml:32:9-35:52
	android:screenOrientation
		ADDED from [:auto-detect] E:\Studio Workspace\Camscanner\scanner-master\working copy\CameraApplication\auto-detect\build\intermediates\library_manifest\debug\AndroidManifest.xml:35:13-49
	android:label
		ADDED from [:auto-detect] E:\Studio Workspace\Camscanner\scanner-master\working copy\CameraApplication\auto-detect\build\intermediates\library_manifest\debug\AndroidManifest.xml:34:13-51
	android:name
		ADDED from [:auto-detect] E:\Studio Workspace\Camscanner\scanner-master\working copy\CameraApplication\auto-detect\build\intermediates\library_manifest\debug\AndroidManifest.xml:33:13-86
activity#ppapps.cropreceiptdemo.cropreceipt.CropReceiptActivity
ADDED from [:auto-detect] E:\Studio Workspace\Camscanner\scanner-master\working copy\CameraApplication\auto-detect\build\intermediates\library_manifest\debug\AndroidManifest.xml:36:9-39:52
	android:screenOrientation
		ADDED from [:auto-detect] E:\Studio Workspace\Camscanner\scanner-master\working copy\CameraApplication\auto-detect\build\intermediates\library_manifest\debug\AndroidManifest.xml:39:13-49
	android:label
		ADDED from [:auto-detect] E:\Studio Workspace\Camscanner\scanner-master\working copy\CameraApplication\auto-detect\build\intermediates\library_manifest\debug\AndroidManifest.xml:38:13-49
	android:name
		ADDED from [:auto-detect] E:\Studio Workspace\Camscanner\scanner-master\working copy\CameraApplication\auto-detect\build\intermediates\library_manifest\debug\AndroidManifest.xml:37:13-82
